Algoritma Fuzzy C-Means dengan R
…
## Loading required package: fclust

## Warning: package 'fclust' was built under R version 4.1.3

Import Dataset

library(readxl)
anemia <- read_excel("anemia.xlsx", col_types = c("numeric", 
    "numeric", "numeric", "numeric", "numeric", 
    "numeric"))

anemia

## # A tibble: 1,421 x 6
##    Gender Hemoglobin   MCH  MCHC   MCV Result
##     <dbl>      <dbl> <dbl> <dbl> <dbl>  <dbl>
##  1      1       14.9  22.7  29.1  83.7      0
##  2      0       15.9  25.4  28.3  72        0
##  3      0        9    21.5  29.6  71.2      1
##  4      0       14.9  16    31.4  87.5      0
##  5      1       14.7  22    28.2  99.5      0
##  6      0       11.6  22.3  30.9  74.5      1
##  7      1       12.7  19.5  28.9  82.9      1
##  8      1       12.7  28.5  28.2  92.3      1
##  9      0       14.1  29.7  30.5  75.2      0
## 10      1       14.9  25.8  31.3  82.9      0
## # ... with 1,411 more rows

data(anemia)

## Warning in data(anemia): data set 'anemia' not found

x=anemia[,-1]
x[1:50,]

## # A tibble: 50 x 5
##    Hemoglobin   MCH  MCHC   MCV Result
##         <dbl> <dbl> <dbl> <dbl>  <dbl>
##  1       14.9  22.7  29.1  83.7      0
##  2       15.9  25.4  28.3  72        0
##  3        9    21.5  29.6  71.2      1
##  4       14.9  16    31.4  87.5      0
##  5       14.7  22    28.2  99.5      0
##  6       11.6  22.3  30.9  74.5      1
##  7       12.7  19.5  28.9  82.9      1
##  8       12.7  28.5  28.2  92.3      1
##  9       14.1  29.7  30.5  75.2      0
## 10       14.9  25.8  31.3  82.9      0
## # ... with 40 more rows
…
